…
## All countries

    library(dplyr)
    #Filter for Exports for one country
    global_economy %>% 
      distinct(Country)

    ## # A tibble: 263 x 1
    ##    Country            
    ##    <fct>              
    ##  1 Afghanistan        
    ##  2 Albania            
    ##  3 Algeria            
    ##  4 American Samoa     
    ##  5 Andorra            
    ##  6 Angola             
    ##  7 Antigua and Barbuda
    ##  8 Arab World         
    ##  9 Argentina          
    ## 10 Armenia            
    ## # ... with 253 more rows

I decided to choose as country “Turkey”.

    #Filter for Exports for one country
    global_economy %>% 
        filter(Country == 'Turkey') -> tr_global_economy
    tr_global_economy

    ## # A tibble: 58 x 9
    ##    Country Code   Year          GDP Growth       CPI Imports Exports Population
    ##    <fct>   <fct> <dbl>        <dbl>  <dbl>     <dbl>   <dbl>   <dbl>      <dbl>
    ##  1 Turkey  TUR    1960 13995067818.  NA    0.0000540    3.67    2.06   27472331
    ##  2 Turkey  TUR    1961  8022222222.   1.16 0.0000557    6.79    5.12   28146893
    ##  3 Turkey  TUR    1962  8922222222.   5.57 0.0000578    7.97    5.60   28832805
    ##  4 Turkey  TUR    1963 10355555556.   9.07 0.0000615    6.97    4.18   29531342
    ##  5 Turkey  TUR    1964 11177777778.   5.46 0.0000622    5.47    4.47   30244232
    ##  6 Turkey  TUR    1965 11944444444.   2.82 0.0000650    5.40    4.56   30972965
    ##  7 Turkey  TUR    1966 14122222222.  11.2  0.0000705    5.66    4.09   31717477
    ##  8 Turkey  TUR    1967 15666666667.   4.73 0.0000804    4.96    4.11   32477961
    ##  9 Turkey  TUR    1968 17500000000    6.78 0.0000853    5.08    3.68   33256432
    ## 10 Turkey  TUR    1969 19466666667.   4.08 0.0000895    4.74    3.60   34055361
    ## # ... with 48 more rows
…
